[{
    "id": "gid://gitlab/IncidentManagement::OncallRotation/2",
    "name": "Rotation 242",
    "startsAt": "2021-01-13T11:04:56.333Z",
    "endsAt": "2021-03-13T15:04:56.333Z",
    "length": 2,
    "lengthUnit": "WEEKS",
    "activePeriod": {
      "startTime": "02:00",
      "endTime": "10:00"
    },
    "participants": {
      "nodes": [
        {
          "id": "49",
          "user": {
            "id": "gid://gitlab/IncidentManagement::OncallParticipant/49",
            "username": "nora.schaden",
            "avatarUrl": "/url",
            "name": "nora"
          },
          "colorWeight": "500",
          "colorPalette": "blue"
        }
      ]
    },
    "shifts": {
      "nodes": [
        {
          "participant": {
            "id": "1",
            "colorWeight": "500",
            "colorPalette": "blue",
            "user": {
              "id": "gid://gitlab/User/1",
              "username": "nora.schaden",
              "avatarUrl": "/url",
              "name": "nora"
            }
          },
          "startsAt": "2021-01-12T10:04:56.333Z",
          "endsAt": "2021-01-15T10:04:56.333Z"
        },
        {
          "participant": {
            "id": "2",
            "colorWeight": "500",
            "colorPalette": "orange",
            "user": {
              "id": "gid://gitlab/User/2",
              "username": "racheal.loving",
              "avatarUrl": "/url",
              "name": "racheal"
            }
          },
          "startsAt": "2021-01-16T10:04:56.333Z",
          "endsAt": "2021-01-18T10:04:56.333Z"
        }
      ]
    }
  },
  {
    "id": "gid://gitlab/IncidentManagement::OncallRotation/55",
    "name": "Rotation 242",
    "startsAt": "2021-01-13T11:04:56.333Z",
    "endsAt": "2021-03-13T15:04:56.333Z",
    "length": 1,
    "lengthUnit": "WEEKS",
    "activePeriod": {
      "startTime": "02:00",
      "endTime": "10:00"
    },
    "participants": {
      "nodes": [
        {
          "id": "99",
          "user": {
            "id": "gid://gitlab/IncidentManagement::OncallParticipant/99",
            "username": "david.oregan",
            "avatarUrl": "/url",
            "name": "david"
          },
          "colorWeight": "500",
          "colorPalette": "aqua"
        }
      ]
    },
    "shifts": {
      "nodes": [
        {
          "participant": {
            "id": "38",
            "colorWeight": "500",
            "colorPalette": "aqua",
            "user": {
              "id": "gid://gitlab/User/38",
              "avatarUrl": "url",
              "username": "david.oregan",
              "name": "david"
            }
          },
          "startsAt": "2021-01-14T10:04:56.333Z",
          "endsAt": "2021-01-20T10:04:56.333Z"
        },
        {
          "participant": {
            "id": "39",
            "colorWeight": "500",
            "colorPalette": "green",
            "user": {
              "id": "gid://gitlab/User/39",
              "avatarUrl": "url",
              "username": "david.keagan",
              "name": "david k"
            }
          },
          "startsAt": "2021-01-21T10:04:56.333Z",
          "endsAt": "2021-01-26T10:04:56.333Z"
        }
      ]
    }
  },
  {
    "id": "gid://gitlab/IncidentManagement::OncallRotation/3",
    "name": "Rotation 244",
    "startsAt": "2021-01-06T10:04:56.333Z",
    "endsAt": "2021-01-10T10:04:56.333Z",
    "length": 1,
    "lengthUnit": "WEEKS",
    "activePeriod": {
      "startTime": "02:00",
      "endTime": "10:00"
    },
    "participants": {
      "nodes": [
        {
          "id": "48",
          "user": {
            "id": "gid://gitlab/IncidentManagement::OncallParticipant/48",
            "username": "root",
            "avatarUrl": "/url",
            "name": "Administrator"
          },
          "colorWeight": "500",
          "colorPalette": "magenta"
        }
      ]
    },
    "shifts": {
      "nodes": [
        {
          "participant": {
            "id": "40",
            "colorWeight": "500",
            "colorPalette": "magenta",
            "user": {
              "id": "gid://gitlab/User/40",
              "avatarUrl": "url",
              "username": "root",
              "name": "Administrator"
            }
          },
          "startsAt": "2021-01-10T10:04:56.333Z",
          "endsAt": "2021-01-13T11:04:56.333Z"
        },
        {
          "participant": {
            "id": "41",
            "colorWeight": "600",
            "colorPalette": "blue",
            "user": {
              "id": "gid://gitlab/User/41",
              "avatarUrl": "url",
              "username": "root2",
              "name": "Administrator 2"
            }
          },
          "startsAt": "2021-01-15T10:04:56.333Z",
          "endsAt": "2021-01-18T10:04:56.333Z"
        }
      ]
    }
},
{
  "id": "gid://gitlab/IncidentManagement::OncallRotation/5",
  "name": "Rotation 247",
  "startsAt": "2021-01-06T10:04:56.333Z",
  "endsAt": "2021-01-11T10:04:56.333Z",
  "length": 1,
  "lengthUnit": "WEEKS",
  "activePeriod": {
    "startTime": "02:00",
    "endTime": "10:00"
  },
  "participants": {
    "nodes": [
      {
        "id": "51",
        "user": {
          "id": "gid://gitlab/IncidentManagement::OncallParticipant/51",
          "username": "oregand",
          "avatarUrl": "/url",
          "name": "david"
        },
        "colorWeight": "600",
        "colorPalette": "orange"
      }
    ]
  },
  "shifts": {
    "nodes": [
      {
        "participant": {
          "id": "43",
          "colorWeight": "600",
          "colorPalette": "orange",
          "user": {
            "id": "gid://gitlab/User/43",
            "avatarUrl": "url",
            "username": "oregand",
            "name": "david"
          }
        },
        "startsAt": "2021-01-12T10:04:56.333Z",
        "endsAt": "2021-01-15T10:04:56.333Z"
      },
      {
        "participant": {
          "id": "44",
          "colorWeight": "600",
          "colorPalette": "aqua",
          "user": {
            "id": "gid://gitlab/User/44",
            "avatarUrl": "url",
            "username": "sarah.w",
            "name": "sarah"
          }
        },
        "startsAt": "2021-01-16T10:04:56.333Z",
        "endsAt": "2021-01-30T10:04:56.333Z"
      }
    ]
  }
}]
